# triples: 23243 
# entities: 10526 
# relations: 15 
# timesteps: 59 
# test triples: 2428 
# valid triples: 2375 
# train triples: 18440 
Measure method:  triples  
Target Size :  22960  
Grow Factor:  0  
Shrink Factor:  0.01  
Epsilon Factor: 0  
Search method: N/A  
filter_dupes: inter
nonames: False
